PS270 Final Project
…
    `Entity` == "Saint Vincent and the Grenadines" |
    `Entity` == "Seychelles" |
    `Entity` == "Singapore" |
    `Entity` == "Syria" |
    `Entity` == "Tajikistan" |
    `Entity` == "Tonga" |
    `Entity` == "Trinidad and Tobago" |
    `Entity` == "Turkmenistan" |
    `Entity` == "Tuvalu" |
    `Entity` == "United States" |
    `Entity` == "Yemen" |
    `Entity` == "Zambia")
no_quotas

# A tibble: 3,129 × 5
   Entity       Year Lower chamber female leg…¹ Electoral Democracy …²
   <chr>       <dbl>                      <dbl>                  <dbl>
 1 Afghanistan  1923                          0                  0.038
 2 Afghanistan  1924                          0                  0.114
 3 Afghanistan  1925                          0                  0.111
 4 Afghanistan  1926                          0                  0.111
 5 Afghanistan  1927                          0                  0.111
 6 Afghanistan  1928                          0                  0.111
 7 Afghanistan  1929                          0                  0.106
 8 Afghanistan  1930                          0                  0.103
 9 Afghanistan  1931                          0                  0.116
10 Afghanistan  1932                          0                  0.085
# ℹ 3,119 more rows
# ℹ abbreviated names: ¹​`Lower chamber female legislators`,
#   ²​`Electoral Democracy Index`
# ℹ 1 more variable: `World region according to OWID` <chr>
…
